ParamCIC.sim/sim_1/behav/xsim/simulate.log
Time resolution is 1 ps
Time = 0 | data_in = 0000 | data_out = xxxx | rst = 0
Time = 200000 | data_in = 0000 | data_out = 0000 | rst = 1
Time = 400000 | data_in = 0000 | data_out = 0000 | rst = 0
Time = 820000 | data_in = 2c37 | data_out = 0000 | rst = 0
Time = 840000 | data_in = 1d8c | data_out = 0000 | rst = 0
Time = 860000 | data_in = ea7d | data_out = 0000 | rst = 0
Time = 880000 | data_in = dbd1 | data_out = 0000 | rst = 0
Time = 900000 | data_in = 0805 | data_out = 0000 | rst = 0
Time = 920000 | data_in = 3439 | data_out = 0000 | rst = 0
Time = 930000 | data_in = 3439 | data_out = 02c3 | rst = 0
Time = 940000 | data_in = 2589 | data_out = 02c3 | rst = 0
Time = 950000 | data_in = 2589 | data_out = 0a23 | rst = 0
Time = 960000 | data_in = f273 | data_out = 0a23 | rst = 0
Time = 970000 | data_in = f273 | data_out = 14c6 | rst = 0
Time = 980000 | data_in = e3bf | data_out = 14c6 | rst = 0
Time = 990000 | data_in = e3bf | data_out = 1821 | rst = 0
Time = 1000000 | data_in = 0feb | data_out = 1821 | rst = 0
Time = 1010000 | data_in = 0feb | data_out = 0f28 | rst = 0
Time = 1020000 | data_in = 3c14 | data_out = 0f28 | rst = 0
Time = 1030000 | data_in = 3c14 | data_out = 0128 | rst = 0
Time = 1040000 | data_in = 2d58 | data_out = 0128 | rst = 0
Time = 1050000 | data_in = 2d58 | data_out = ff8d | rst = 0
Time = 1060000 | data_in = fa35 | data_out = ff8d | rst = 0
Time = 1070000 | data_in = fa35 | data_out = 0d87 | rst = 0
Time = 1080000 | data_in = eb73 | data_out = 0d87 | rst = 0
Time = 1090000 | data_in = eb73 | data_out = 1b7e | rst = 0
Time = 1100000 | data_in = 178f | data_out = 1b7e | rst = 0
Time = 1110000 | data_in = 178f | data_out = 19dc | rst = 0
Time = 1120000 | data_in = 43a8 | data_out = 19dc | rst = 0
Time = 1130000 | data_in = 43a8 | data_out = 0e95 | rst = 0
Time = 1140000 | data_in = 34da | data_out = 0e95 | rst = 0
Time = 1150000 | data_in = 34da | data_out = 0ced | rst = 0
Time = 1160000 | data_in = 01a5 | data_out = 0ced | rst = 0
Time = 1170000 | data_in = 01a5 | data_out = 1ad7 | rst = 0
Time = 1180000 | data_in = f2ce | data_out = 1ad7 | rst = 0
Time = 1190000 | data_in = f2ce | data_out = 28be | rst = 0
Time = 1200000 | data_in = 1ed5 | data_out = 28be | rst = 0
Time = 1210000 | data_in = 1ed5 | data_out = 2708 | rst = 0
Time = 1220000 | data_in = 4ad7 | data_out = 2708 | rst = 0
Time = 1230000 | data_in = 4ad7 | data_out = 1bab | rst = 0
Time = 1240000 | data_in = 3bf2 | data_out = 1bab | rst = 0
Time = 1250000 | data_in = 3bf2 | data_out = 19ea | rst = 0
Time = 1260000 | data_in = 08a3 | data_out = 19ea | rst = 0
Time = 1270000 | data_in = 08a3 | data_out = 27bb | rst = 0
Time = 1280000 | data_in = f9b3 | data_out = 27bb | rst = 0
Time = 1290000 | data_in = f9b3 | data_out = 3585 | rst = 0
Time = 1300000 | data_in = 259e | data_out = 3585 | rst = 0
Time = 1310000 | data_in = 259e | data_out = 33b2 | rst = 0
Time = 1320000 | data_in = 5184 | data_out = 33b2 | rst = 0
Time = 1330000 | data_in = 5184 | data_out = 2835 | rst = 0
Time = 1340000 | data_in = 4281 | data_out = 2835 | rst = 0
Time = 1350000 | data_in = 4281 | data_out = 2652 | rst = 0
Time = 1360000 | data_in = 0f14 | data_out = 2652 | rst = 0
Time = 1370000 | data_in = 0f14 | data_out = 33ff | rst = 0
Time = 1380000 | data_in = 0004 | data_out = 33ff | rst = 0
Time = 1390000 | data_in = 0004 | data_out = 41a3 | rst = 0
Time = 1400000 | data_in = 2bd0 | data_out = 41a3 | rst = 0
Time = 1410000 | data_in = 2bd0 | data_out = 3fa7 | rst = 0
Time = 1420000 | data_in = 5794 | data_out = 3fa7 | rst = 0
Time = 1430000 | data_in = 5794 | data_out = 3400 | rst = 0
Time = 1440000 | data_in = 486f | data_out = 3400 | rst = 0
Time = 1450000 | data_in = 486f | data_out = 31f2 | rst = 0
Time = 1460000 | data_in = 14de | data_out = 31f2 | rst = 0
Time = 1470000 | data_in = 14de | data_out = 3f70 | rst = 0
Time = 1480000 | data_in = 05aa | data_out = 3f70 | rst = 0
Time = 1490000 | data_in = 05aa | data_out = 4ce5 | rst = 0
Time = 1500000 | data_in = 3150 | data_out = 4ce5 | rst = 0
Time = 1510000 | data_in = 3150 | data_out = 4ab8 | rst = 0
Time = 1520000 | data_in = 5cee | data_out = 4ab8 | rst = 0
Time = 1530000 | data_in = 5cee | data_out = 3edd | rst = 0
Time = 1540000 | data_in = 4da2 | data_out = 3edd | rst = 0
Time = 1550000 | data_in = 4da2 | data_out = 3c9a | rst = 0
Time = 1560000 | data_in = 19ea | data_out = 3c9a | rst = 0
Time = 1570000 | data_in = 19ea | data_out = 49e2 | rst = 0
Time = 1580000 | data_in = 0a8d | data_out = 49e2 | rst = 0
Time = 1590000 | data_in = 0a8d | data_out = 571e | rst = 0
Time = 1600000 | data_in = 3609 | data_out = 571e | rst = 0
Time = 1610000 | data_in = 3609 | data_out = 54b7 | rst = 0
Time = 1620000 | data_in = 617d | data_out = 54b7 | rst = 0
Time = 1630000 | data_in = 617d | data_out = 48a1 | rst = 0
Time = 1640000 | data_in = 5206 | data_out = 48a1 | rst = 0
Time = 1650000 | data_in = 5206 | data_out = 4620 | rst = 0
Time = 1660000 | data_in = 1e22 | data_out = 4620 | rst = 0
Time = 1670000 | data_in = 1e22 | data_out = 5329 | rst = 0
Time = 1680000 | data_in = 0e99 | data_out = 5329 | rst = 0
Time = 1690000 | data_in = 0e99 | data_out = 6025 | rst = 0
Time = 1700000 | data_in = 39e9 | data_out = 6025 | rst = 0
Time = 1710000 | data_in = 39e9 | data_out = 5d7c | rst = 0
Time = 1720000 | data_in = 652f | data_out = 5d7c | rst = 0
Time = 1730000 | data_in = 652f | data_out = 5123 | rst = 0
Time = 1740000 | data_in = 558a | data_out = 5123 | rst = 0
Time = 1750000 | data_in = 558a | data_out = 4e5d | rst = 0
Time = 1760000 | data_in = 2177 | data_out = 4e5d | rst = 0
Time = 1770000 | data_in = 2177 | data_out = 5b20 | rst = 0
Time = 1780000 | data_in = 11be | data_out = 5b20 | rst = 0
Time = 1790000 | data_in = 11be | data_out = 67d5 | rst = 0
Time = 1800000 | data_in = 3cde | data_out = 67d5 | rst = 0
Time = 1810000 | data_in = 3cde | data_out = 64e4 | rst = 0
Time = 1820000 | data_in = 67f4 | data_out = 64e4 | rst = 0
Time = 1830000 | data_in = 67f4 | data_out = 5841 | rst = 0
Time = 1840000 | data_in = 581e | data_out = 5841 | rst = 0
Time = 1850000 | data_in = 581e | data_out = 5531 | rst = 0
Time = 1860000 | data_in = 23da | data_out = 5531 | rst = 0
Time = 1870000 | data_in = 23da | data_out = 61a9 | rst = 0
Time = 1880000 | data_in = 13f0 | data_out = 61a9 | rst = 0
Time = 1890000 | data_in = 13f0 | data_out = 6e10 | rst = 0
Time = 1900000 | data_in = 3ede | data_out = 6e10 | rst = 0
Time = 1910000 | data_in = 3ede | data_out = 6ad1 | rst = 0
Time = 1920000 | data_in = 69c1 | data_out = 6ad1 | rst = 0
Time = 1930000 | data_in = 69c1 | data_out = 5ddf | rst = 0
Time = 1940000 | data_in = 59b9 | data_out = 5ddf | rst = 0
Time = 1950000 | data_in = 59b9 | data_out = 5a7f | rst = 0
Time = 1960000 | data_in = 2542 | data_out = 5a7f | rst = 0
Time = 1970000 | data_in = 2542 | data_out = 66a6 | rst = 0
Time = 1980000 | data_in = 1525 | data_out = 66a6 | rst = 0
Time = 1990000 | data_in = 1525 | data_out = 72bc | rst = 0
Time = 2000000 | data_in = 3fe0 | data_out = 72bc | rst = 0
Time = 2010000 | data_in = 3fe0 | data_out = 6f2a | rst = 0
Time = 2020000 | data_in = 6a90 | data_out = 6f2a | rst = 0
Time = 2030000 | data_in = 6a90 | data_out = 61e5 | rst = 0
Time = 2040000 | data_in = 5a54 | data_out = 61e5 | rst = 0
Time = 2050000 | data_in = 5a54 | data_out = 5e32 | rst = 0
Time = 2060000 | data_in = 25aa | data_out = 5e32 | rst = 0
Time = 2070000 | data_in = 25aa | data_out = 6a05 | rst = 0
Time = 2080000 | data_in = 1559 | data_out = 6a05 | rst = 0
Time = 2090000 | data_in = 1559 | data_out = 75c6 | rst = 0
Time = 2100000 | data_in = 3fe0 | data_out = 75c6 | rst = 0
Time = 2110000 | data_in = 3fe0 | data_out = 71df | rst = 0
Time = 2120000 | data_in = 6a5c | data_out = 71df | rst = 0
Time = 2130000 | data_in = 6a5c | data_out = 6445 | rst = 0
Time = 2140000 | data_in = 59ed | data_out = 6445 | rst = 0
Time = 2150000 | data_in = 59ed | data_out = 603b | rst = 0
Time = 2160000 | data_in = 250f | data_out = 603b | rst = 0
Time = 2170000 | data_in = 250f | data_out = 6bb8 | rst = 0
Time = 2180000 | data_in = 148a | data_out = 6bb8 | rst = 0
Time = 2190000 | data_in = 148a | data_out = 7723 | rst = 0
Time = 2200000 | data_in = 3ede | data_out = 7723 | rst = 0
Time = 2210000 | data_in = 3ede | data_out = 72e5 | rst = 0
Time = 2220000 | data_in = 6927 | data_out = 72e5 | rst = 0
Time = 2230000 | data_in = 6927 | data_out = 64f4 | rst = 0
Time = 2240000 | data_in = 5884 | data_out = 64f4 | rst = 0
Time = 2250000 | data_in = 5884 | data_out = 6093 | rst = 0
Time = 2260000 | data_in = 2374 | data_out = 6093 | rst = 0
Time = 2270000 | data_in = 2374 | data_out = 6bb8 | rst = 0
Time = 2280000 | data_in = 12bd | data_out = 6bb8 | rst = 0
Time = 2290000 | data_in = 12bd | data_out = 76cb | rst = 0
Time = 2300000 | data_in = 3cde | data_out = 76cb | rst = 0
Time = 2310000 | data_in = 3cde | data_out = 7237 | rst = 0
Time = 2320000 | data_in = 66f5 | data_out = 7237 | rst = 0
Time = 2330000 | data_in = 66f5 | data_out = 63ee | rst = 0
Time = 2340000 | data_in = 5621 | data_out = 63ee | rst = 0
Time = 2350000 | data_in = 5621 | data_out = 5f37 | rst = 0
Time = 2360000 | data_in = 20df | data_out = 5f37 | rst = 0
Time = 2370000 | data_in = 20df | data_out = 6a05 | rst = 0
Time = 2380000 | data_in = 0ff8 | data_out = 6a05 | rst = 0
Time = 2390000 | data_in = 0ff8 | data_out = 74c2 | rst = 0
Time = 2400000 | data_in = 39e9 | data_out = 74c2 | rst = 0
Time = 2410000 | data_in = 39e9 | data_out = 6fd7 | rst = 0
Time = 2420000 | data_in = 63d0 | data_out = 6fd7 | rst = 0
Time = 2430000 | data_in = 63d0 | data_out = 6139 | rst = 0
Time = 2440000 | data_in = 52cd | data_out = 6139 | rst = 0
Time = 2450000 | data_in = 52cd | data_out = 5c2c | rst = 0
Time = 2460000 | data_in = 1d5c | data_out = 5c2c | rst = 0
Time = 2470000 | data_in = 1d5c | data_out = 66a6 | rst = 0
Time = 2480000 | data_in = 0c46 | data_out = 66a6 | rst = 0
Time = 2490000 | data_in = 0c46 | data_out = 710e | rst = 0
Time = 2500000 | data_in = 3609 | data_out = 710e | rst = 0
Time = 2510000 | data_in = 3609 | data_out = 6bd0 | rst = 0
Time = 2520000 | data_in = 5fc4 | data_out = 6bd0 | rst = 0
Time = 2530000 | data_in = 5fc4 | data_out = 5cdf | rst = 0
Time = 2540000 | data_in = 4e94 | data_out = 5cdf | rst = 0
Time = 2550000 | data_in = 4e94 | data_out = 5780 | rst = 0
Time = 2560000 | data_in = 18f8 | data_out = 5780 | rst = 0
Time = 2570000 | data_in = 18f8 | data_out = 61a9 | rst = 0
Time = 2580000 | data_in = 07b7 | data_out = 61a9 | rst = 0
Time = 2590000 | data_in = 07b7 | data_out = 6bc1 | rst = 0
Time = 2600000 | data_in = 3150 | data_out = 6bc1 | rst = 0
Time = 2610000 | data_in = 3150 | data_out = 6633 | rst = 0
Time = 2620000 | data_in = 5ae1 | data_out = 6633 | rst = 0
Time = 2630000 | data_in = 5ae1 | data_out = 56f2 | rst = 0
Time = 2640000 | data_in = 4989 | data_out = 56f2 | rst = 0
Time = 2650000 | data_in = 4989 | data_out = 5145 | rst = 0
Time = 2660000 | data_in = 13c4 | data_out = 5145 | rst = 0
Time = 2670000 | data_in = 13c4 | data_out = 5b21 | rst = 0
Time = 2680000 | data_in = 025d | data_out = 5b21 | rst = 0
Time = 2690000 | data_in = 025d | data_out = 64ed | rst = 0
Time = 2700000 | data_in = 2bd0 | data_out = 64ed | rst = 0
Time = 2710000 | data_in = 2bd0 | data_out = 5f14 | rst = 0
Time = 2720000 | data_in = 553b | data_out = 5f14 | rst = 0
Time = 2730000 | data_in = 553b | data_out = 4f8b | rst = 0
Time = 2740000 | data_in = 43bf | data_out = 4f8b | rst = 0
Time = 2750000 | data_in = 43bf | data_out = 4995 | rst = 0
Time = 2760000 | data_in = 0dd7 | data_out = 4995 | rst = 0
Time = 2770000 | data_in = 0dd7 | data_out = 5329 | rst = 0
Time = 2780000 | data_in = fc4d | data_out = 5329 | rst = 0
Time = 2790000 | data_in = fc4d | data_out = 5cb0 | rst = 0
Time = 2800000 | data_in = 259e | data_out = 5cb0 | rst = 0
Time = 2810000 | data_in = 259e | data_out = 5692 | rst = 0
Time = 2820000 | data_in = 4eea | data_out = 5692 | rst = 0
Time = 2830000 | data_in = 4eea | data_out = 46c5 | rst = 0
Time = 2840000 | data_in = 3d4d | data_out = 46c5 | rst = 0
Time = 2850000 | data_in = 3d4d | data_out = 408e | rst = 0
Time = 2860000 | data_in = 0747 | data_out = 408e | rst = 0
Time = 2870000 | data_in = 0747 | data_out = 49e2 | rst = 0
Time = 2880000 | data_in = f5a0 | data_out = 49e2 | rst = 0
Time = 2890000 | data_in = f5a0 | data_out = 532a | rst = 0
Time = 2900000 | data_in = 1ed5 | data_out = 532a | rst = 0
Time = 2910000 | data_in = 1ed5 | data_out = 4ccf | rst = 0
Time = 2920000 | data_in = 4805 | data_out = 4ccf | rst = 0
Time = 2930000 | data_in = 4805 | data_out = 3cc6 | rst = 0
Time = 2940000 | data_in = 364f | data_out = 3cc6 | rst = 0
Time = 2950000 | data_in = 364f | data_out = 3655 | rst = 0
Time = 2960000 | data_in = 0030 | data_out = 3655 | rst = 0
Time = 2970000 | data_in = 0030 | data_out = 3f70 | rst = 0
Time = 2980000 | data_in = ee71 | data_out = 3f70 | rst = 0
Time = 2990000 | data_in = ee71 | data_out = 4881 | rst = 0
Time = 3000000 | data_in = 178f | data_out = 4881 | rst = 0
Time = 3010000 | data_in = 178f | data_out = 41f1 | rst = 0
Time = 3020000 | data_in = 40aa | data_out = 41f1 | rst = 0
Time = 3030000 | data_in = 40aa | data_out = 31b5 | rst = 0
Time = 3040000 | data_in = 2ee0 | data_out = 31b5 | rst = 0
Time = 3050000 | data_in = 2ee0 | data_out = 2b13 | rst = 0
Time = 3060000 | data_in = f8ae | data_out = 2b13 | rst = 0
Time = 3070000 | data_in = f8ae | data_out = 33ff | rst = 0
Time = 3080000 | data_in = e6dd | data_out = 33ff | rst = 0
Time = 3090000 | data_in = e6dd | data_out = 3ce2 | rst = 0
Time = 3100000 | data_in = 0feb | data_out = 3ce2 | rst = 0
Time = 3110000 | data_in = 0feb | data_out = 3626 | rst = 0
Time = 3120000 | data_in = 38f6 | data_out = 3626 | rst = 0
Time = 3130000 | data_in = 38f6 | data_out = 25c0 | rst = 0
Time = 3140000 | data_in = 271d | data_out = 25c0 | rst = 0
Time = 3150000 | data_in = 271d | data_out = 1ef6 | rst = 0
Time = 3160000 | data_in = f0de | data_out = 1ef6 | rst = 0
Time = 3170000 | data_in = f0de | data_out = 27bb | rst = 0
Time = 3180000 | data_in = df02 | data_out = 27bb | rst = 0
Time = 3190000 | data_in = df02 | data_out = 307a | rst = 0
Time = 3200000 | data_in = 0805 | data_out = 307a | rst = 0
Time = 3210000 | data_in = 0805 | data_out = 299d | rst = 0
Time = 3220000 | data_in = 3108 | data_out = 299d | rst = 0
Time = 3230000 | data_in = 3108 | data_out = 1917 | rst = 0
Time = 3240000 | data_in = 1f27 | data_out = 1917 | rst = 0
Time = 3250000 | data_in = 1f27 | data_out = 122e | rst = 0
Time = 3260000 | data_in = e8e2 | data_out = 122e | rst = 0
Time = 3270000 | data_in = e8e2 | data_out = 1ad7 | rst = 0
Time = 3280000 | data_in = d700 | data_out = 1ad7 | rst = 0
Time = 3290000 | data_in = d700 | data_out = 237c | rst = 0
Time = 3300000 | data_in = 0000 | data_out = 237c | rst = 0
Time = 3310000 | data_in = 0000 | data_out = 1c86 | rst = 0
Time = 3320000 | data_in = 2900 | data_out = 1c86 | rst = 0
Time = 3330000 | data_in = 2900 | data_out = 0beb | rst = 0
Time = 3340000 | data_in = 171e | data_out = 0beb | rst = 0
Time = 3350000 | data_in = 171e | data_out = 04ee | rst = 0
Time = 3360000 | data_in = e0d9 | data_out = 04ee | rst = 0
Time = 3370000 | data_in = e0d9 | data_out = 0d86 | rst = 0
Time = 3380000 | data_in = cef8 | data_out = 0d86 | rst = 0
Time = 3390000 | data_in = cef8 | data_out = 161c | rst = 0
Time = 3400000 | data_in = f7fb | data_out = 161c | rst = 0
Time = 3410000 | data_in = f7fb | data_out = 0f19 | rst = 0
Time = 3420000 | data_in = 20fe | data_out = 0f19 | rst = 0
Time = 3430000 | data_in = 20fe | data_out = fe73 | rst = 0
Time = 3440000 | data_in = 0f22 | data_out = fe73 | rst = 0
Time = 3450000 | data_in = 0f22 | data_out = f76e | rst = 0
Time = 3460000 | data_in = d8e3 | data_out = f76e | rst = 0
Time = 3470000 | data_in = d8e3 | data_out = 0000 | rst = 0
Time = 3480000 | data_in = c70a | data_out = 0000 | rst = 0
Time = 3490000 | data_in = c70a | data_out = 0891 | rst = 0
Time = 3500000 | data_in = f015 | data_out = 0891 | rst = 0
Time = 3510000 | data_in = f015 | data_out = 018c | rst = 0
Time = 3520000 | data_in = 1923 | data_out = 018c | rst = 0
Time = 3530000 | data_in = 1923 | data_out = f0e6 | rst = 0
Time = 3540000 | data_in = 0752 | data_out = f0e6 | rst = 0
Time = 3550000 | data_in = 0752 | data_out = e9e3 | rst = 0
Time = 3560000 | data_in = d120 | data_out = e9e3 | rst = 0
Time = 3570000 | data_in = d120 | data_out = f279 | rst = 0
Time = 3580000 | data_in = bf56 | data_out = f279 | rst = 0
Time = 3590000 | data_in = bf56 | data_out = fb11 | rst = 0
Time = 3600000 | data_in = e871 | data_out = fb11 | rst = 0
Time = 3610000 | data_in = e871 | data_out = f415 | rst = 0
Time = 3620000 | data_in = 118f | data_out = f415 | rst = 0
Time = 3630000 | data_in = 118f | data_out = e379 | rst = 0
Time = 3640000 | data_in = ffd0 | data_out = e379 | rst = 0
Time = 3650000 | data_in = ffd0 | data_out = dc83 | rst = 0
Time = 3660000 | data_in = c9b1 | data_out = dc83 | rst = 0
Time = 3670000 | data_in = c9b1 | data_out = e528 | rst = 0
Time = 3680000 | data_in = b7fb | data_out = e528 | rst = 0
Time = 3690000 | data_in = b7fb | data_out = edd1 | rst = 0
Time = 3700000 | data_in = e12b | data_out = edd1 | rst = 0
Time = 3710000 | data_in = e12b | data_out = e6e8 | rst = 0
Time = 3720000 | data_in = 0a60 | data_out = e6e8 | rst = 0
Time = 3730000 | data_in = 0a60 | data_out = d663 | rst = 0
Time = 3740000 | data_in = f8b9 | data_out = d663 | rst = 0
Time = 3750000 | data_in = f8b9 | data_out = cf85 | rst = 0
Time = 3760000 | data_in = c2b3 | data_out = cf85 | rst = 0
Time = 3770000 | data_in = c2b3 | data_out = d844 | rst = 0
Time = 3780000 | data_in = b116 | data_out = d844 | rst = 0
Time = 3790000 | data_in = b116 | data_out = e109 | rst = 0
Time = 3800000 | data_in = da62 | data_out = e109 | rst = 0
Time = 3810000 | data_in = da62 | data_out = da3f | rst = 0
Time = 3820000 | data_in = 03b3 | data_out = da3f | rst = 0
Time = 3830000 | data_in = 03b3 | data_out = c9d9 | rst = 0
Time = 3840000 | data_in = f229 | data_out = c9d9 | rst = 0
Time = 3850000 | data_in = f229 | data_out = c31d | rst = 0
Time = 3860000 | data_in = bc41 | data_out = c31d | rst = 0
Time = 3870000 | data_in = bc41 | data_out = cc01 | rst = 0
Time = 3880000 | data_in = aac5 | data_out = cc01 | rst = 0
Time = 3890000 | data_in = aac5 | data_out = d4ec | rst = 0
Time = 3900000 | data_in = d430 | data_out = d4ec | rst = 0
Time = 3910000 | data_in = d430 | data_out = ce4a | rst = 0
Time = 3920000 | data_in = fda3 | data_out = ce4a | rst = 0
Time = 3930000 | data_in = fda3 | data_out = be0e | rst = 0
Time = 3940000 | data_in = ec3c | data_out = be0e | rst = 0
Time = 3950000 | data_in = ec3c | data_out = b77e | rst = 0
Time = 3960000 | data_in = b677 | data_out = b77e | rst = 0
Time = 3970000 | data_in = b677 | data_out = c08f | rst = 0
Time = 3980000 | data_in = a51f | data_out = c08f | rst = 0
Time = 3990000 | data_in = a51f | data_out = c9aa | rst = 0
Time = 4000000 | data_in = ceb0 | data_out = c9aa | rst = 0
Time = 4010000 | data_in = ceb0 | data_out = c339 | rst = 0
Time = 4020000 | data_in = f849 | data_out = c339 | rst = 0
Time = 4030000 | data_in = f849 | data_out = b330 | rst = 0
Time = 4040000 | data_in = e708 | data_out = b330 | rst = 0
Time = 4050000 | data_in = e708 | data_out = acd5 | rst = 0
Time = 4060000 | data_in = b16c | data_out = acd5 | rst = 0
Time = 4070000 | data_in = b16c | data_out = b61d | rst = 0
Time = 4080000 | data_in = a03c | data_out = b61d | rst = 0
Time = 4090000 | data_in = a03c | data_out = bf71 | rst = 0
Time = 4100000 | data_in = c9f7 | data_out = bf71 | rst = 0
Time = 4110000 | data_in = c9f7 | data_out = b93a | rst = 0
Time = 4120000 | data_in = f3ba | data_out = b93a | rst = 0
Time = 4130000 | data_in = f3ba | data_out = a96d | rst = 0
Time = 4140000 | data_in = e2a4 | data_out = a96d | rst = 0
Time = 4150000 | data_in = e2a4 | data_out = a34f | rst = 0
Time = 4160000 | data_in = ad33 | data_out = a34f | rst = 0
Time = 4170000 | data_in = ad33 | data_out = acd6 | rst = 0
Time = 4180000 | data_in = 9c30 | data_out = acd6 | rst = 0
Time = 4190000 | data_in = 9c30 | data_out = b66a | rst = 0
Time = 4200000 | data_in = c617 | data_out = b66a | rst = 0
Time = 4210000 | data_in = c617 | data_out = b075 | rst = 0
Time = 4220000 | data_in = f008 | data_out = b075 | rst = 0
Time = 4230000 | data_in = f008 | data_out = a0eb | rst = 0
Time = 4240000 | data_in = df21 | data_out = a0eb | rst = 0
Time = 4250000 | data_in = df21 | data_out = 9b12 | rst = 0
Time = 4260000 | data_in = a9df | data_out = 9b12 | rst = 0
Time = 4270000 | data_in = a9df | data_out = a4df | rst = 0
Time = 4280000 | data_in = 990b | data_out = a4df | rst = 0
Time = 4290000 | data_in = 990b | data_out = aeba | rst = 0
Time = 4300000 | data_in = c322 | data_out = aeba | rst = 0
Time = 4310000 | data_in = c322 | data_out = a90d | rst = 0
Time = 4320000 | data_in = ed43 | data_out = a90d | rst = 0
Time = 4330000 | data_in = ed43 | data_out = 99cc | rst = 0
Time = 4340000 | data_in = dc8c | data_out = 99cc | rst = 0
Time = 4350000 | data_in = dc8c | data_out = 943e | rst = 0
Time = 4360000 | data_in = a77c | data_out = 943e | rst = 0
Time = 4370000 | data_in = a77c | data_out = 9e57 | rst = 0
Time = 4380000 | data_in = 96d9 | data_out = 9e57 | rst = 0
Time = 4390000 | data_in = 96d9 | data_out = a87f | rst = 0
Time = 4400000 | data_in = c122 | data_out = a87f | rst = 0
Time = 4410000 | data_in = c122 | data_out = a320 | rst = 0
Time = 4420000 | data_in = eb76 | data_out = a320 | rst = 0
Time = 4430000 | data_in = eb76 | data_out = 942f | rst = 0
Time = 4440000 | data_in = daf1 | data_out = 942f | rst = 0
Time = 4450000 | data_in = daf1 | data_out = 8ef1 | rst = 0
Time = 4460000 | data_in = a613 | data_out = 8ef1 | rst = 0
Time = 4470000 | data_in = a613 | data_out = 995a | rst = 0
Time = 4480000 | data_in = 95a4 | data_out = 995a | rst = 0
Time = 4490000 | data_in = 95a4 | data_out = a3d3 | rst = 0
Time = 4500000 | data_in = c020 | data_out = a3d3 | rst = 0
Time = 4510000 | data_in = c020 | data_out = 9ec6 | rst = 0
Time = 4520000 | data_in = eaa7 | data_out = 9ec6 | rst = 0
Time = 4530000 | data_in = eaa7 | data_out = 9028 | rst = 0
Time = 4540000 | data_in = da56 | data_out = 9028 | rst = 0
Time = 4550000 | data_in = da56 | data_out = 8b3d | rst = 0
Time = 4560000 | data_in = a5ac | data_out = 8b3d | rst = 0
Time = 4570000 | data_in = a5ac | data_out = 95fa | rst = 0
Time = 4580000 | data_in = 9570 | data_out = 95fa | rst = 0
Time = 4590000 | data_in = 9570 | data_out = a0c9 | rst = 0
Time = 4600000 | data_in = c020 | data_out = a0c9 | rst = 0
Time = 4610000 | data_in = c020 | data_out = 9c11 | rst = 0
Time = 4620000 | data_in = eadb | data_out = 9c11 | rst = 0
Time = 4630000 | data_in = eadb | data_out = 8dc8 | rst = 0
Time = 4640000 | data_in = dabe | data_out = 8dc8 | rst = 0
Time = 4650000 | data_in = dabe | data_out = 8934 | rst = 0
Time = 4660000 | data_in = a647 | data_out = 8934 | rst = 0
Time = 4670000 | data_in = a647 | data_out = 9447 | rst = 0
Time = 4680000 | data_in = 963f | data_out = 9447 | rst = 0
Time = 4690000 | data_in = 963f | data_out = 9f6c | rst = 0
Time = 4700000 | data_in = c122 | data_out = 9f6c | rst = 0
Time = 4710000 | data_in = c122 | data_out = 9b0c | rst = 0
Time = 4720000 | data_in = ec10 | data_out = 9b0c | rst = 0
Time = 4730000 | data_in = ec10 | data_out = 8d1a | rst = 0
Time = 4740000 | data_in = dc26 | data_out = 8d1a | rst = 0
Time = 4750000 | data_in = dc26 | data_out = 88dd | rst = 0
Time = 4760000 | data_in = a7e2 | data_out = 88dd | rst = 0
Time = 4770000 | data_in = a7e2 | data_out = 9447 | rst = 0
Time = 4780000 | data_in = 980c | data_out = 9447 | rst = 0
Time = 4790000 | data_in = 980c | data_out = 9fc4 | rst = 0
Time = 4800000 | data_in = c322 | data_out = 9fc4 | rst = 0
Time = 4810000 | data_in = c322 | data_out = 9bba | rst = 0
Time = 4820000 | data_in = ee42 | data_out = 9bba | rst = 0
Time = 4830000 | data_in = ee42 | data_out = 8e20 | rst = 0
Time = 4840000 | data_in = de89 | data_out = 8e20 | rst = 0
Time = 4850000 | data_in = de89 | data_out = 8a39 | rst = 0
Time = 4860000 | data_in = aa76 | data_out = 8a39 | rst = 0
Time = 4870000 | data_in = aa76 | data_out = 95fa | rst = 0
Time = 4880000 | data_in = 9ad1 | data_out = 95fa | rst = 0
Time = 4890000 | data_in = 9ad1 | data_out = a1cd | rst = 0
Time = 4900000 | data_in = c617 | data_out = a1cd | rst = 0
Time = 4910000 | data_in = c617 | data_out = 9e1a | rst = 0
Time = 4920000 | data_in = f167 | data_out = 9e1a | rst = 0
Time = 4930000 | data_in = f167 | data_out = 90d5 | rst = 0
Time = 4940000 | data_in = e1de | data_out = 90d5 | rst = 0
Time = 4950000 | data_in = e1de | data_out = 8d43 | rst = 0
Time = 4960000 | data_in = adfa | data_out = 8d43 | rst = 0
Time = 4970000 | data_in = adfa | data_out = 9959 | rst = 0
Time = 4980000 | data_in = 9e83 | data_out = 9959 | rst = 0
Time = 4990000 | data_in = 9e83 | data_out = a580 | rst = 0
Time = 5000000 | data_in = c9f7 | data_out = a580 | rst = 0
Time = 5010000 | data_in = c9f7 | data_out = a220 | rst = 0
Time = 5020000 | data_in = f573 | data_out = a220 | rst = 0
Time = 5030000 | data_in = f573 | data_out = 952e | rst = 0
Time = 5040000 | data_in = e616 | data_out = 952e | rst = 0
Time = 5050000 | data_in = e616 | data_out = 91ef | rst = 0
Time = 5060000 | data_in = b25e | data_out = 91ef | rst = 0
Time = 5070000 | data_in = b25e | data_out = 9e57 | rst = 0
Time = 5080000 | data_in = a312 | data_out = 9e57 | rst = 0
Time = 5090000 | data_in = a312 | data_out = aace | rst = 0
Time = 5100000 | data_in = ceb0 | data_out = aace | rst = 0
Time = 5110000 | data_in = ceb0 | data_out = a7be | rst = 0
Time = 5120000 | data_in = fa56 | data_out = a7be | rst = 0
Time = 5130000 | data_in = fa56 | data_out = 9b1c | rst = 0
Time = 5140000 | data_in = eb22 | data_out = 9b1c | rst = 0
Time = 5150000 | data_in = eb22 | data_out = 982a | rst = 0
Time = 5160000 | data_in = b791 | data_out = 982a | rst = 0
Time = 5170000 | data_in = b791 | data_out = a4df | rst = 0
Time = 5180000 | data_in = a86c | data_out = a4df | rst = 0
Time = 5190000 | data_in = a86c | data_out = b1a2 | rst = 0
Time = 5200000 | data_in = d430 | data_out = b1a2 | rst = 0
Time = 5210000 | data_in = d430 | data_out = aedc | rst = 0
Time = 5220000 | data_in = fffc | data_out = aedc | rst = 0
Time = 5230000 | data_in = fffc | data_out = a283 | rst = 0
Time = 5240000 | data_in = f0ec | data_out = a283 | rst = 0
Time = 5250000 | data_in = f0ec | data_out = 9fda | rst = 0
Time = 5260000 | data_in = bd7f | data_out = 9fda | rst = 0
Time = 5270000 | data_in = bd7f | data_out = acd6 | rst = 0
Time = 5280000 | data_in = ae7c | data_out = acd6 | rst = 0
Time = 5290000 | data_in = ae7c | data_out = b9df | rst = 0
Time = 5300000 | data_in = da62 | data_out = b9df | rst = 0
Time = 5310000 | data_in = da62 | data_out = b75e | rst = 0
Time = 5320000 | data_in = 064d | data_out = b75e | rst = 0
